Jiayi Xue - Example analysis
…
ℹ Use `spec()` to retrieve the full column specification for this data.
ℹ Specify the column types or set `show_col_types = FALSE` to quiet this message.

Data wrangling using dplyr

income_distribution_by_year_race <- group_by(income_distribution, year, race) %>%
  summarise(income_mean = mean(income_mean)) %>%
  filter(!is.na(income_mean), !is.na(year), !is.na(race))

`summarise()` has grouped output by 'year'. You can override using the
`.groups` argument.

income_distribution_by_year_race

# A tibble: 323 × 3
# Groups:   year [53]
    year race        income_mean
   <dbl> <chr>             <dbl>
 1  1967 All Races         53616
 2  1967 Black Alone       34878
 3  1967 White Alone       55576
 4  1968 All Races         56572
 5  1968 Black Alone       37392
 6  1968 White Alone       58606
 7  1969 All Races         59004
 8  1969 Black Alone       38948
 9  1969 White Alone       61192
10  1970 All Races         58926
# … with 313 more rows

income_by_year <- filter(income_distribution, race == "All Races")  %>%
  mutate(income_bracket = factor(income_bracket, 
                                 levels = c("Under $15,000","$15,000 to $24,999", "$25,000 to $34,999", "$35,000 to $49,999", "$50,000 to $74,999",   
                                            "$75,000 to $99,999", "$100,000 to $149,999", "$150,000 to $199,999", "$200,000 and over"))) %>%
  select(year, race, number, income_bracket, income_distribution)

income_by_year

# A tibble: 477 × 5
    year race         number income_bracket       income_distribution
   <dbl> <chr>         <dbl> <fct>                              <dbl>
 1  2019 All Races 128451000 Under $15,000                        9.1
 2  2019 All Races 128451000 $15,000 to $24,999                   8  
 3  2019 All Races 128451000 $25,000 to $34,999                   8.3
 4  2019 All Races 128451000 $35,000 to $49,999                  11.7
 5  2019 All Races 128451000 $50,000 to $74,999                  16.5
 6  2019 All Races 128451000 $75,000 to $99,999                  12.3
 7  2019 All Races 128451000 $100,000 to $149,999                15.5
 8  2019 All Races 128451000 $150,000 to $199,999                 8.3
 9  2019 All Races 128451000 $200,000 and over                   10.3
10  2018 All Races 128579000 Under $15,000                       10.1
# … with 467 more rows
…
